{
    "page": 1,
    "per_page": 6,
    "total": 12,
    "total_pages": 2,
    "data": [{
        "username": "pmarti22@nd.edu",
        "password": "cerulean"
    }, {
        "username": "agutier4@nd.edu",
        "password": "fuchsiarose",
    }],
    "support": {
        "url": "https://reqres.in/#support-heading",
        "text": "To keep ReqRes free, contributions towards server costs are appreciated!"
    }
}
